digraph model {
  orientation = portrait;
  graph [ rankdir = "TB", ranksep="0.08", nodesep="0.18", size="8!" ];
  node [ fontname = "Helvetica", fontsize="11.0", shape="ellipse", margin="0.01", height="0.1", width="0.5" ];
  edge [ fontname = "Helvetica", arrowsize=".3", arrowhead="normal", fontsize="6.0", margin="0.05" ];
None [shape=none, style=invis, width=0.1, height=0.1];
None->reset;
{rank = source; None}
reset->open[penwidth="2.004",label = " "];open->err[penwidth="1.322",label = " "];open->closed[penwidth="1.322",label = " "];closed->closed[penwidth="1.491",label = " "];closed->err[penwidth="1.613",label = " "];open->open[penwidth="1.041",label = " "];open->open[style=dotted, color=blue,penwidth="1.041",label = " "];open->maybeconnected[penwidth="1.041",label = " "];maybeconnected->maybeconnected[penwidth="1.041",label = " "];maybeconnected->connected[penwidth="1.041",label = " "];connected->err[penwidth="1.322",label = " "];open->open[style=dotted, color=blue,penwidth="1.491",label = " "];open->err[penwidth="1.322",label = " "];open->connected[penwidth="1.491",label = " "];connected->connected[penwidth="1.322",label = " "];connected->closed[penwidth="1.322",label = " "];connected->connected[penwidth="1.041",label = " "];}
