digraph model {
  orientation = portrait;
  graph [ rankdir = "TB", ranksep="0.08", nodesep="0.18", size="8!" ];
  node [ fontname = "Helvetica", fontsize="11.0", shape="ellipse", margin="0.01", height="0.1", width="0.5" ];
  edge [ fontname = "Helvetica", arrowsize=".3", arrowhead="normal", fontsize="6.0", margin="0.05" ];
None [shape=none, style=invis, width=0.1, height=0.1];
None->reset;
{rank = source; None}
reset->open[penwidth="2.004",label = " "];open->err[penwidth="1.519",label = " "];open->open[penwidth="1.322",label = " "];open->closed[penwidth="1.491",label = " "];closed->err[penwidth="1.633",label = " "];closed->closed[penwidth="1.431",label = " "];open->maybeconnected[penwidth="0.602",label = " "];maybeconnected->err[penwidth="0.301",label = " "];maybeconnected->closed[penwidth="0.301",label = " "];open->open[style=dotted, color=blue,penwidth="0.301",label = " "];maybeconnected->maybeconnected[penwidth="0.301",label = " "];maybeconnected->connected[style=dotted];connected->connected[penwidth="0.903",label = " "];connected->closed[penwidth="1.079",label = " "];open->err[penwidth="1.176",label = " "];open->open[style=dotted, color=blue,penwidth="1.342",label = " "];open->connected[penwidth="1.342",label = " "];connected->err[penwidth="1.079",label = " "];connected->connected[penwidth="0.602",label = " "];}
