digraph model {
  orientation = portrait;
  graph [ rankdir = "TB", ranksep="0.08", nodesep="0.18", size="8!" ];
  node [ fontname = "Helvetica", fontsize="11.0", shape="ellipse", margin="0.01", height="0.1", width="0.5" ];
  edge [ fontname = "Helvetica", arrowsize=".3", arrowhead="normal", fontsize="6.0", margin="0.05" ];
None [shape=none, style=invis, width=0.1, height=0.1];
None->reset;
{rank = source; None}
reset->open[penwidth="2.004",label = " "];open->err[penwidth="0.845",label = " "];open->closed[penwidth="0.845",label = " "];closed->closed[penwidth="0.978",label = " "];closed->err[penwidth="1.267",label = " "];open->open[penwidth="0.699",label = " "];open->maybeconnected[penwidth="0.699",label = " "];maybeconnected->maybeconnected[penwidth="0.602",label = " "];maybeconnected->connected[style=dotted];connected->connected[penwidth="1.863",label = " "];connected->connected[penwidth="0.903",label = " "];connected->connected[color=red,penwidth="1.775",label = " "];open->open[style=dotted, color=blue,penwidth="0.176",label = " "];maybeconnected->maybeconnected[penwidth="0.176",label = " "];maybeconnected->connected[penwidth="0.176",label = " "];connected->err[penwidth="1.079",label = " "];open->open[style=dotted, color=blue,penwidth="1.973",label = " "];maybeconnected->err[penwidth="0.176",label = " "];maybeconnected->err[penwidth="0.176",label = " "];open->err[penwidth="0.845",label = " "];open->connected[penwidth="1.898",label = " "];connected->closed[penwidth="1.097",label = " "];}
