digraph model {
  orientation = portrait;
  graph [ rankdir = "TB", ranksep="0.08", nodesep="0.18", size="8!" ];
  node [ fontname = "Helvetica", fontsize="11.0", shape="ellipse", margin="0.01", height="0.1", width="0.5" ];
  edge [ fontname = "Helvetica", arrowsize=".3", arrowhead="normal", fontsize="6.0", margin="0.05" ];
None [shape=none, style=invis, width=0.1, height=0.1];
None->reset;
{rank = source; None}
reset->open[penwidth="2.004",label = " "];open->err[penwidth="1.438",label = " "];open->open[penwidth="1.270",label = " "];open->closed[penwidth="1.346",label = " "];closed->err[penwidth="1.562",label = " "];closed->closed[penwidth="1.303",label = " "];open->maybeconnected[penwidth="0.785",label = " "];maybeconnected->maybeconnected[penwidth="0.279",label = " "];maybeconnected->maybeconnected[style=dotted, color=blue,penwidth="0.079",label = " "];maybeconnected->err[penwidth="0.362",label = " "];maybeconnected->err[penwidth="0.230",label = " "];maybeconnected->maybeconnected[style=dotted, color=blue,penwidth="0.342",label = " "];maybeconnected->connected[penwidth="0.041",label = " "];connected->closed[penwidth="1.140",label = " "];maybeconnected->maybeconnected[penwidth="0.415",label = " "];maybeconnected->connected[style=dotted];connected->err[penwidth="1.193",label = " "];maybeconnected->maybeconnected[penwidth="0.176",label = " "];connected->connected[penwidth="1.009",label = " "];connected->connected[penwidth="0.991",label = " "];maybeconnected->closed[penwidth="0.398",label = " "];open->open[style=dotted, color=blue,penwidth="1.241",label = " "];open->connected[penwidth="1.435",label = " "];open->open[style=dotted, color=blue,penwidth="0.531",label = " "];open->err[penwidth="1.344",label = " "];connected->connected[color=red,penwidth="0.146",label = " "];}
